Regression Modelling - Data Preprocessing
…
── Attaching packages
───────────────────────────────────────
tidyverse 1.3.2 ──

✔ tibble  3.1.8     ✔ stringr 1.4.1
✔ readr   2.1.3     ✔ forcats 0.5.2
✔ purrr   0.3.5     
── Conflicts ────────────────────────────────────────── tidyverse_conflicts() ──
✖ plotly::filter() masks dplyr::filter(), stats::filter()
✖ dplyr::lag()     masks stats::lag()

Load datasets

# A tibble: 119,390 × 32
   hotel  is_ca…¹ lead_…² arriv…³ arriv…⁴ arriv…⁵ arriv…⁶ stays…⁷ stays…⁸ adults
   <chr>    <dbl>   <dbl>   <dbl> <chr>     <dbl>   <dbl>   <dbl>   <dbl>  <dbl>
 1 Resor…       0     342    2015 July         27       1       0       0      2
 2 Resor…       0     737    2015 July         27       1       0       0      2
 3 Resor…       0       7    2015 July         27       1       0       1      1
 4 Resor…       0      13    2015 July         27       1       0       1      1
 5 Resor…       0      14    2015 July         27       1       0       2      2
 6 Resor…       0      14    2015 July         27       1       0       2      2
 7 Resor…       0       0    2015 July         27       1       0       2      2
 8 Resor…       0       9    2015 July         27       1       0       2      2
 9 Resor…       1      85    2015 July         27       1       0       3      2
10 Resor…       1      75    2015 July         27       1       0       3      2
# … with 119,380 more rows, 22 more variables: children <dbl>, babies <dbl>,
#   meal <chr>, country <chr>, market_segment <chr>,
#   distribution_channel <chr>, is_repeated_guest <dbl>,
#   previous_cancellations <dbl>, previous_bookings_not_canceled <dbl>,
#   reserved_room_type <chr>, assigned_room_type <chr>, booking_changes <dbl>,
#   deposit_type <chr>, agent <chr>, company <chr>, days_in_waiting_list <dbl>,
#   customer_type <chr>, adr <dbl>, required_car_parking_spaces <dbl>, …

Had a problem while loading the data.guess_max determines how many cells in each column are used to make a guess of the column type. we can provide a guess_max for read_excel to correctly guess the column type.

# A tibble: 149 × 9
   datetime             TURB ECOLI arithmetic -…¹ predi…²     SD neg S…³ 1.96 …⁴
   <dttm>              <dbl> <dbl>          <dbl>   <dbl>  <dbl>   <dbl>   <dbl>
 1 2019-05-22 10:00:00   3     130           45.9    55.7   85.8    24.6    156.
 2 2019-05-29 09:45:00   3      77           45.9    55.7   85.8    24.6    156.
 3 2019-06-05 08:00:00   3.7    50           59.9    72.7  112.     32.1    204.
 4 2019-06-12 10:00:00  19.9   488          505.    613.   943.    270.    1719.
 5 2019-06-19 08:00:00  69    2685         2442.   2965.  4561.   1307.    8310.
 6 2019-06-19 10:15:00  58.9  1990         1998.   2426.  3732.   1069.    6800.
 7 2019-06-26 08:00:00  15.9   205          380.    461.   710.    203.    1293.
 8 2019-07-10 08:00:00  14.8   100          347.    421.   648.    186.    1181.
 9 2019-07-10 10:30:00  14     162          323.    393.   604.    173.    1101.
10 2019-07-17 08:00:00  43.5   480         1361.   1652.  2542.    728.    4631.
# … with 139 more rows, 1 more variable: `neg 1.96 SD` <dbl>, and abbreviated
#   variable names ¹​`arithmetic - Predicted ECOLI`,
#   ²​`predicted ecoli with Duans smearing adjustment`, ³​`neg SD`, ⁴​`1.96 SD`

# A tibble: 124,746 × 23
   agency_cd Name  site_no datetime            tz_cd    pH pH-st…¹    DO DO-st…²
   <chr>     <chr>   <dbl> <dttm>              <chr> <dbl> <chr>   <dbl> <chr>  
 1 USGS      Pear… 3451500 2019-03-01 00:00:00 EST      NA <NA>       NA <NA>   
 2 USGS      Pear… 3451500 2019-03-01 00:15:00 EST      NA <NA>       NA <NA>   
 3 USGS      Pear… 3451500 2019-03-01 00:30:00 EST      NA <NA>       NA <NA>   
 4 USGS      Pear… 3451500 2019-03-01 00:45:00 EST      NA <NA>       NA <NA>   
 5 USGS      Pear… 3451500 2019-03-01 01:00:00 EST      NA <NA>       NA <NA>   
 6 USGS      Pear… 3451500 2019-03-01 01:15:00 EST      NA <NA>       NA <NA>   
 7 USGS      Pear… 3451500 2019-03-01 01:30:00 EST      NA <NA>       NA <NA>   
 8 USGS      Pear… 3451500 2019-03-01 01:45:00 EST      NA <NA>       NA <NA>   
 9 USGS      Pear… 3451500 2019-03-01 02:00:00 EST      NA <NA>       NA <NA>   
10 USGS      Pear… 3451500 2019-03-01 02:15:00 EST      NA <NA>       NA <NA>   
# … with 124,736 more rows, 14 more variables: SC <dbl>, `SC-status` <chr>,
#   Turb_FNU <dbl>, `Turb-status` <chr>, WL_Elev <dbl>, `WL_Elev-status` <chr>,
#   Temp_C <dbl>, `Temp-status` <chr>, Q_cfs <dbl>, `Q-status` <chr>,
#   Stage_ft <dbl>, `Stage - status` <chr>, Precip_in <dbl>,
#   `Precip-status` <chr>, and abbreviated variable names ¹​`pH-status`,
#   ²​`DO-status`
…
